2019-03-06 18:02:22.3846 INFO Here is info message from our values controller.
2019-03-06 18:02:22.4319 DEBUG Here is debug message from our values controller.
2019-03-06 18:02:22.4319 WARN Here is warn message from our values controller.
2019-03-06 18:02:22.4319 ERROR Here is error message from our values controller.
